%!PS-Adobe-3.0 EPSF-3.0
%%DocumentNeededResources: font Helvetica
%%+ font Helvetica-Bold
%%+ font Helvetica-Oblique
%%+ font Helvetica-BoldOblique
%%+ font Symbol
%%Title: R Graphics Output
%%Creator: R Software
%%Pages: (atend)
%%BoundingBox: 0 0 504 504
%%EndComments
%%BeginProlog
/bp  { gs sRGB gs } def
% begin .ps.prolog
/gs  { gsave } bind def
/gr  { grestore } bind def
/ep  { showpage gr gr } bind def
/m   { moveto } bind def
/l  { rlineto } bind def
/np  { newpath } bind def
/cp  { closepath } bind def
/f   { fill } bind def
/o   { stroke } bind def
/c   { newpath 0 360 arc } bind def
/r   { 4 2 roll moveto 1 copy 3 -1 roll exch 0 exch rlineto 0 rlineto -1 mul 0 exch rlineto closepath } bind def
/p1  { stroke } bind def
/p2  { gsave bg fill grestore newpath } bind def
/p3  { gsave bg fill grestore stroke } bind def
/p6  { gsave bg eofill grestore newpath } bind def
/p7  { gsave bg eofill grestore stroke } bind def
/t   { 5 -2 roll moveto gsave rotate
       1 index stringwidth pop
       mul neg 0 rmoveto show grestore } bind def
/ta  { 4 -2 roll moveto gsave rotate show } bind def
/tb  { 2 -1 roll 0 rmoveto show } bind def
/cl  { grestore gsave newpath 3 index 3 index moveto 1 index
       4 -1 roll lineto  exch 1 index lineto lineto
       closepath clip newpath } bind def
/rgb { setrgbcolor } bind def
/s   { scalefont setfont } bind def
% end   .ps.prolog
/sRGB { [ /CIEBasedABC
          << /DecodeLMN
               [ { dup 0.03928 le
                        {12.92321 div}
                        {0.055 add 1.055 div 2.4 exp }
                     ifelse
                 } bind dup dup
               ]
             /MatrixLMN [0.412457 0.212673 0.019334
                         0.357576 0.715152 0.119192
                         0.180437 0.072175 0.950301]
             /WhitePoint [0.9505 1.0 1.0890]
           >>
         ] setcolorspace } bind def
/srgb { setcolor } bind def
%%IncludeResource: font Helvetica
/Helvetica findfont
dup length dict begin
  {1 index /FID ne {def} {pop pop} ifelse} forall
  /Encoding ISOLatin1Encoding def
  currentdict
  end
/Font1 exch definefont pop
%%IncludeResource: font Helvetica-Bold
/Helvetica-Bold findfont
dup length dict begin
  {1 index /FID ne {def} {pop pop} ifelse} forall
  /Encoding ISOLatin1Encoding def
  currentdict
  end
/Font2 exch definefont pop
%%IncludeResource: font Helvetica-Oblique
/Helvetica-Oblique findfont
dup length dict begin
  {1 index /FID ne {def} {pop pop} ifelse} forall
  /Encoding ISOLatin1Encoding def
  currentdict
  end
/Font3 exch definefont pop
%%IncludeResource: font Helvetica-BoldOblique
/Helvetica-BoldOblique findfont
dup length dict begin
  {1 index /FID ne {def} {pop pop} ifelse} forall
  /Encoding ISOLatin1Encoding def
  currentdict
  end
/Font4 exch definefont pop
%%IncludeResource: font Symbol
/Symbol findfont
dup length dict begin
  {1 index /FID ne {def} {pop pop} ifelse} forall
  currentdict
  end
/Font5 exch definefont pop
%%EndProlog
%%Page: 1 1
bp
59.04 73.44 473.76 444.96 cl
1 0.3020 0 srgb
0.75 setlinewidth
[] 0 setdash
1 setlinecap
1 setlinejoin
10.00 setmiterlimit
np
74.40 87.20 m
0.60 108.11 l
0.15 19.66 l
0.11 9.83 l
0.87 49.14 l
0.49 -49.14 l
0.23 39.31 l
0.70 29.49 l
0.94 0 l
0.26 49.14 l
0.26 -19.65 l
0.52 -19.66 l
0.54 19.66 l
0.57 29.48 l
0.18 -19.66 l
0.02 9.83 l
0.06 -58.97 l
0.24 29.49 l
0 49.14 l
0.40 0 l
0.22 -78.63 l
0.63 88.46 l
0.01 -49.14 l
0.60 9.82 l
1.20 19.66 l
0.37 -19.66 l
0.05 9.83 l
0.47 19.66 l
0.54 39.31 l
0.03 -29.48 l
0.46 -39.32 l
1.49 -9.82 l
0.66 19.65 l
2.69 39.32 l
0.62 9.83 l
0.50 -58.98 l
0.19 78.63 l
0.07 -9.83 l
0.09 0 l
0.85 -19.65 l
0.21 0 l
0.14 -29.49 l
0.79 49.14 l
0.20 9.83 l
0.13 -9.83 l
0.73 -19.65 l
0.05 19.65 l
0.19 -19.65 l
0.29 0 l
0.01 -9.83 l
0.01 39.31 l
0.14 -29.48 l
0.05 9.83 l
0.17 -29.49 l
1.19 29.49 l
0.11 -9.83 l
0.03 19.65 l
0.35 -9.82 l
0.36 -9.83 l
0.50 39.31 l
0.13 -49.14 l
0.57 39.31 l
1.92 -9.83 l
0.40 -9.82 l
0.58 29.48 l
0.34 -19.66 l
0.23 -39.31 l
0.84 29.49 l
0.50 -9.83 l
0.78 19.65 l
0.31 9.83 l
0.25 9.83 l
0.15 -19.66 l
0.80 9.83 l
0.04 19.66 l
0.53 -39.31 l
0.67 -9.83 l
0.77 -9.83 l
0.10 29.48 l
0.57 0 l
0.79 9.83 l
0.55 -19.65 l
1.07 9.82 l
0.09 0 l
0.02 19.66 l
0.78 -19.66 l
0.97 19.66 l
0.06 -9.83 l
0.41 9.83 l
0.50 -9.83 l
0.26 9.83 l
0.73 -9.83 l
0.11 -39.31 l
0.32 39.31 l
0.55 9.83 l
0.21 -19.66 l
0.42 -19.65 l
0.23 19.65 l
0.05 -9.82 l
0.10 -9.83 l
118.22 431.20 lineto
0.61 -9.83 l
0.21 0 l
0.31 -9.83 l
0.68 0 l
0.10 9.83 l
0.13 0 l
1.15 0 l
0.06 0 l
0.47 -9.83 l
0 9.83 l
0.48 9.83 l
0.71 -9.83 l
0.95 -19.66 l
0.15 9.83 l
1.14 19.66 l
0.17 -9.83 l
0.06 0 l
0.37 0 l
0.77 0 l
0.44 0 l
0.69 0 l
0.55 0 l
0.03 -9.83 l
0.12 0 l
0.44 -39.31 l
1.99 49.14 l
0.48 -9.83 l
0.21 0 l
0.63 19.66 l
0.19 -9.83 l
1.00 0 l
2.46 0 l
2.16 -19.66 l
0.32 29.49 l
0.42 0 l
0.46 -9.83 l
0.29 -9.83 l
0.13 9.83 l
0.01 0 l
0.02 0 l
0.15 9.83 l
0.43 0 l
0.01 -19.66 l
1.17 19.66 l
0.44 0 l
0.38 -9.83 l
0.03 9.83 l
0.05 -19.66 l
0.09 19.66 l
0.18 -19.66 l
0.06 9.83 l
0.06 -9.83 l
0.14 9.83 l
0.37 -9.83 l
0.15 19.66 l
0.75 -9.83 l
0.06 -9.83 l
0.01 0 l
0.19 9.83 l
0.14 0 l
0.27 9.83 l
0.09 -9.83 l
0.51 9.83 l
0.07 -19.66 l
0.43 19.66 l
0.36 0 l
0.30 0 l
0.34 -29.49 l
0.29 9.83 l
1.46 9.83 l
0.07 9.83 l
0.49 0 l
0.18 0 l
0.02 -9.83 l
0.50 0 l
0.12 -9.83 l
0.09 19.66 l
0.82 0 l
0.62 -9.83 l
0.62 9.83 l
0.56 -19.66 l
0.01 19.66 l
0.14 -9.83 l
1.17 0 l
0.15 9.83 l
0.03 -9.83 l
0.18 -9.83 l
0.16 9.83 l
0.71 0 l
0.18 0 l
0.90 0 l
0.15 9.83 l
0.11 0 l
0.53 -9.83 l
0.07 0 l
0.13 9.83 l
0.42 -9.83 l
0.63 9.83 l
0.68 0 l
159.89 421.37 lineto
0.12 9.83 l
0.27 0 l
0.42 0 l
0.26 0 l
0.12 -9.83 l
0.10 0 l
0.40 0 l
0.38 -9.83 l
0.18 0 l
0.11 19.66 l
0.07 -9.83 l
0.72 9.83 l
0.45 0 l
1.56 -9.83 l
0.69 0 l
0.45 9.83 l
0.13 0 l
0.11 0 l
0.24 0 l
0.20 0 l
0.02 0 l
0 0 l
0.69 0 l
0.50 0 l
0.29 -19.66 l
0.83 19.66 l
0.03 -9.83 l
0.25 0 l
0.02 0 l
0.14 9.83 l
0.26 -9.83 l
0.34 0 l
0.18 9.83 l
0.02 0 l
0.55 0 l
1.13 0 l
0.29 -9.83 l
0.10 9.83 l
0.13 0 l
0.15 -9.83 l
0.65 0 l
0.13 0 l
0.49 0 l
0.36 9.83 l
0.53 0 l
0.10 0 l
0.19 0 l
0.26 0 l
0.20 0 l
0.25 0 l
0.13 0 l
0.13 -9.83 l
0.61 9.83 l
0.32 -9.83 l
0.06 9.83 l
0.52 0 l
0.28 0 l
0.22 0 l
0.26 0 l
0.51 0 l
0.19 0 l
0.04 0 l
0.05 -9.83 l
0.18 9.83 l
0.03 -9.83 l
0.02 9.83 l
0.40 0 l
0.02 0 l
0.34 -9.83 l
1.27 9.83 l
0.39 0 l
0.09 0 l
0.12 0 l
0.08 0 l
0.33 0 l
0.69 0 l
0.14 0 l
0.27 0 l
1.46 -9.83 l
0.28 9.83 l
0.48 -9.83 l
0.01 9.83 l
0.03 0 l
0.22 0 l
0.43 0 l
0.01 0 l
0.15 0 l
0.04 0 l
0.38 0 l
0.38 0 l
0.17 0 l
0.49 0 l
0.02 0 l
0.24 0 l
0.69 0 l
0.12 0 l
0.96 0 l
0.19 0 l
0.40 0 l
190.94 431.20 lineto
0.34 0 l
0.85 0 l
0.10 0 l
0.33 0 l
0.28 0 l
0.18 0 l
0.16 0 l
0.62 -9.83 l
0.38 9.83 l
0.53 0 l
0.28 0 l
0.44 0 l
1.09 0 l
0.11 -9.83 l
0.10 9.83 l
0.04 -9.83 l
0.10 9.83 l
0.19 0 l
0.29 0 l
0.16 0 l
0.30 0 l
0.06 0 l
0.29 0 l
0.17 0 l
0.14 -9.83 l
0.53 9.83 l
1.19 0 l
0.04 0 l
0.37 0 l
0.33 0 l
1.07 0 l
0.57 0 l
0.11 0 l
0.21 -9.83 l
0.22 9.83 l
0.68 0 l
0.66 0 l
0.18 0 l
0.32 0 l
0 0 l
0.19 0 l
0.05 0 l
0.15 0 l
0.05 0 l
0.02 0 l
0.16 0 l
0.15 0 l
0.80 0 l
0.01 0 l
0.22 0 l
0.11 0 l
0.02 0 l
0.28 -9.83 l
0.08 9.83 l
0.19 0 l
0.22 0 l
0.32 0 l
0.72 0 l
0.67 0 l
0.48 0 l
0.08 0 l
0.96 0 l
1.13 0 l
0.19 0 l
0.23 0 l
0.01 0 l
0.21 0 l
0.34 0 l
0.02 0 l
0.26 0 l
0.21 0 l
0.44 0 l
0 0 l
0.28 0 l
1.09 0 l
0.33 0 l
0.30 0 l
0.38 0 l
1.15 0 l
0.04 0 l
0.06 0 l
0.72 0 l
0.10 0 l
0.48 0 l
0.38 0 l
0.25 0 l
0.03 0 l
1.16 0 l
0.34 0 l
0.26 0 l
0.22 -9.83 l
0.24 9.83 l
0.25 0 l
0.34 0 l
0.07 0 l
1.49 0 l
0.02 0 l
0.30 0 l
0 -9.83 l
224.30 431.20 lineto
0.26 0 l
0.28 0 l
0.02 0 l
0.36 0 l
0.05 0 l
0.04 0 l
0.07 0 l
0.46 0 l
0.08 -9.83 l
0.31 9.83 l
0.13 0 l
0.24 0 l
0.18 0 l
1.18 0 l
0.16 0 l
0.23 0 l
0.15 0 l
1.02 0 l
0.32 0 l
0.35 -9.83 l
0.06 9.83 l
0.06 0 l
0.29 0 l
0.05 0 l
0.25 0 l
0.19 0 l
0.23 0 l
0.21 0 l
0.41 0 l
0.20 0 l
0 0 l
0.42 0 l
0.09 0 l
0.06 0 l
0.04 0 l
0.18 0 l
0.29 0 l
0.06 0 l
0.75 0 l
0.33 -19.66 l
0.36 19.66 l
0.28 0 l
0.72 0 l
0.11 0 l
0.18 0 l
0.12 0 l
0.46 0 l
0.31 -9.83 l
0.50 9.83 l
0.82 0 l
0.21 0 l
0.82 0 l
0.40 0 l
0.14 -9.83 l
0.09 9.83 l
0.98 0 l
0.35 0 l
0.15 0 l
0.70 0 l
0.24 0 l
0.20 0 l
1.21 0 l
0.41 0 l
0.13 0 l
0.36 0 l
0.21 0 l
1.36 0 l
0.51 0 l
0.21 0 l
0.43 0 l
0.55 0 l
0.42 0 l
0.10 0 l
0.21 0 l
0.16 0 l
0.44 0 l
0.17 0 l
0.19 0 l
0.06 0 l
1.42 0 l
0.25 0 l
1.10 0 l
0.31 0 l
0.08 0 l
0.30 0 l
0.18 0 l
0.58 0 l
0.10 0 l
0.34 0 l
0.31 0 l
0.01 0 l
0.34 0 l
0.37 0 l
0.04 0 l
0.27 -9.83 l
0.02 9.83 l
0.25 0 l
0.10 0 l
0.06 0 l
256.21 431.20 lineto
1.13 0 l
0.01 -9.83 l
0.07 9.83 l
0.31 0 l
0.31 0 l
0.08 0 l
0.04 0 l
0.53 0 l
0.07 0 l
0.07 0 l
0.90 0 l
0.65 0 l
0.07 0 l
0.37 0 l
1.63 0 l
0.14 0 l
0.03 0 l
0.11 0 l
0.77 0 l
0.59 0 l
0.03 0 l
0.06 0 l
0.09 0 l
0.36 0 l
1.32 0 l
1.51 0 l
0.12 0 l
0.68 0 l
1.06 0 l
0.14 0 l
0.28 0 l
0.07 0 l
0.15 0 l
0.22 0 l
0.04 0 l
0.42 0 l
2.87 0 l
0.82 0 l
0.21 0 l
0.25 0 l
0.10 0 l
0.07 0 l
0.02 0 l
0.53 0 l
0.05 0 l
0.16 0 l
0.65 0 l
0.03 0 l
1.23 0 l
0.27 0 l
0.37 0 l
0.27 0 l
0.64 0 l
0.39 0 l
0.35 0 l
0.21 0 l
0.45 0 l
0.33 0 l
0.09 0 l
0.30 0 l
1.31 0 l
0.73 0 l
0.28 0 l
0.98 0 l
0.36 0 l
0.32 0 l
0.10 0 l
0.86 -9.83 l
0.25 9.83 l
0.55 0 l
0.20 0 l
0.11 0 l
0.28 0 l
0.41 -9.83 l
1.04 9.83 l
0.04 0 l
0.34 0 l
0.15 0 l
1.28 0 l
0.02 0 l
0.11 0 l
0.18 0 l
0.04 0 l
0.43 0 l
0.26 -9.83 l
0.35 9.83 l
0.14 0 l
0.09 0 l
0.50 0 l
0.28 0 l
0.12 0 l
0.26 0 l
0.27 0 l
0.92 0 l
0.06 0 l
0.17 0 l
0.14 0 l
0.97 0 l
0.04 0 l
296.85 431.20 lineto
0.09 0 l
0.23 0 l
0.15 0 l
0.70 0 l
0.20 0 l
0.23 0 l
0.24 0 l
0.87 0 l
1.56 0 l
0.15 0 l
1.35 0 l
0.04 -9.83 l
0.08 9.83 l
0.60 0 l
0.03 0 l
0.53 0 l
0.03 0 l
0.01 0 l
0.89 0 l
0.71 0 l
0.45 0 l
0.31 0 l
0.23 0 l
0.97 0 l
0.34 0 l
0.08 0 l
0.39 0 l
0.73 0 l
0.01 0 l
0.50 0 l
0.69 0 l
0.10 0 l
0.28 0 l
0.10 0 l
0.18 0 l
1.12 0 l
0.13 0 l
0.38 0 l
0.29 0 l
0.33 0 l
1.20 0 l
0.10 0 l
0.12 0 l
0.10 0 l
0.82 0 l
0.19 0 l
1.13 0 l
0.03 0 l
0.09 0 l
0 0 l
0.30 0 l
0.10 -9.83 l
1.02 9.83 l
0.13 0 l
0.64 0 l
0.58 0 l
0.76 0 l
0.29 0 l
0.11 0 l
0.16 0 l
0.39 0 l
0.96 0 l
1.21 0 l
0.85 0 l
0.96 0 l
0.48 0 l
1.27 0 l
1.12 0 l
0.15 0 l
0.28 0 l
0.23 0 l
0.79 0 l
0.01 0 l
0.86 0 l
0.29 0 l
0.56 0 l
0.76 0 l
1.64 0 l
0.08 0 l
0.60 0 l
0.54 0 l
0.13 0 l
0.40 0 l
0.23 0 l
0.50 0 l
0.10 0 l
0.85 0 l
0.72 0 l
0.43 0 l
0.15 0 l
0.14 0 l
0.08 0 l
0.60 0 l
0.19 0 l
0.36 0 l
0.30 0 l
0.43 0 l
0.18 0 l
0.22 0 l
341.38 431.20 lineto
0.52 0 l
0.01 0 l
0.08 0 l
0.20 0 l
0.88 0 l
0.05 0 l
0.69 -9.83 l
0.36 9.83 l
0.27 0 l
0.22 0 l
0.02 0 l
0.41 0 l
0.84 0 l
0.16 0 l
0.31 0 l
0.01 0 l
0.25 0 l
0.17 0 l
0.15 0 l
0.03 0 l
0.52 0 l
0.67 0 l
0.05 0 l
0.33 0 l
0.19 0 l
1.34 0 l
0.85 0 l
0.44 0 l
0.17 0 l
0.68 0 l
0.29 0 l
0.31 0 l
0.36 0 l
0.30 0 l
0.19 0 l
0.19 0 l
0.40 0 l
0.44 0 l
0.01 0 l
2.10 0 l
0.24 0 l
0.33 0 l
0.33 0 l
0.21 0 l
0.39 0 l
0.08 0 l
0.60 0 l
0.15 0 l
1.27 0 l
0 0 l
0.27 0 l
0.04 0 l
0 0 l
1.31 0 l
0.02 0 l
0.01 0 l
0.88 0 l
0.15 0 l
1.85 0 l
0.71 0 l
0.54 0 l
0.12 0 l
0.38 0 l
0.48 0 l
0.08 0 l
1.42 0 l
0.17 0 l
0 0 l
0.11 0 l
0.06 0 l
0.26 0 l
0.68 0 l
0.11 0 l
0.15 0 l
0.37 0 l
0.78 0 l
0.07 0 l
1.06 0 l
0.23 0 l
0.43 0 l
0.09 0 l
0.08 0 l
0.25 0 l
0 0 l
0.01 0 l
0.76 0 l
0.07 0 l
0.18 0 l
0.03 0 l
0.38 0 l
0.08 0 l
0.39 0 l
0.43 0 l
0.46 0 l
1.97 0 l
0.36 0 l
0.43 0 l
0.16 0 l
0.15 0 l
379.52 431.20 lineto
0.59 0 l
0.33 0 l
0.25 0 l
0.04 0 l
0.08 0 l
0.82 0 l
0.32 0 l
1.86 0 l
0.87 0 l
0.20 0 l
0.48 0 l
0.65 0 l
0.17 0 l
0.01 0 l
1.21 0 l
0.02 0 l
0.28 0 l
0.27 -9.83 l
1.87 9.83 l
1.98 0 l
0.06 0 l
0.83 0 l
0.08 0 l
0.16 0 l
0.02 0 l
0.06 0 l
0.44 0 l
0.79 0 l
0.28 0 l
0.06 0 l
0.80 0 l
0.06 0 l
0.49 0 l
0.97 0 l
0.44 0 l
0.13 0 l
0.36 0 l
0.16 0 l
0.15 0 l
0.44 0 l
0.25 0 l
0.30 0 l
0.55 0 l
1.09 0 l
0.54 0 l
0.59 0 l
0.61 0 l
0.11 0 l
1.80 0 l
0.06 0 l
0.19 0 l
0.12 0 l
0.20 0 l
0.05 0 l
0.74 0 l
1.11 0 l
0.15 0 l
0.52 0 l
0.20 0 l
0.41 0 l
0.01 0 l
0.46 0 l
0.26 0 l
0.13 0 l
0.29 0 l
0.02 0 l
0.59 0 l
0.32 0 l
0.84 0 l
0.12 0 l
0.09 0 l
1.71 0 l
0.02 0 l
0.35 0 l
0.17 0 l
0.37 0 l
0.19 0 l
0.13 0 l
1.25 0 l
0.12 0 l
0.78 0 l
0.18 0 l
0.38 0 l
0.16 0 l
0.84 0 l
0.05 0 l
0.06 0 l
0.04 0 l
0.43 0 l
0.62 0 l
0.94 0 l
0.19 0 l
0.01 0 l
1.16 0 l
1.25 0 l
0.21 0 l
0.04 0 l
0.56 0 l
0.02 0 l
423.56 431.20 lineto
0.43 0 l
0.01 0 l
0.12 0 l
0.14 0 l
1.14 0 l
1.07 0 l
2.36 0 l
0.08 0 l
0.38 0 l
0.71 0 l
0.01 0 l
0.21 0 l
0.89 0 l
0.21 0 l
0.23 0 l
0.35 0 l
0.68 0 l
0.06 0 l
0.22 0 l
0.52 0 l
0.05 0 l
0.06 0 l
0.57 0 l
0.74 0 l
0.26 0 l
0.02 0 l
0.63 0 l
0.31 0 l
0.22 0 l
0.40 0 l
0.04 0 l
0.44 0 l
0.46 0 l
0.43 0 l
0.17 0 l
0.38 0 l
0.38 0 l
0.80 0 l
0.05 0 l
0.48 0 l
0.05 0 l
0.10 0 l
0.58 0 l
0.63 0 l
0.36 0 l
0.05 0 l
0.12 0 l
0.34 0 l
0.07 0 l
0.02 0 l
0.19 0 l
0.05 0 l
0.26 0 l
0.10 0 l
0.40 0 l
0.17 0 l
0.03 0 l
0.10 0 l
0.20 0 l
0.86 0 l
0.39 0 l
0.29 0 l
0.17 0 l
0.60 0 l
0.53 0 l
0.62 0 l
0.13 0 l
0.56 0 l
0.09 0 l
0.56 0 l
0.03 0 l
0.95 0 l
0.59 0 l
0.12 0 l
0.04 0 l
0.79 0 l
0.18 0 l
0.15 0 l
0.09 0 l
0.48 0 l
0.25 0 l
0.52 0 l
0.33 0 l
0.01 0 l
0.06 0 l
0.30 0 l
0.22 0 l
0.18 0 l
0.74 0 l
0.51 0 l
0.03 0 l
0.14 0 l
0.41 0 l
0.31 0 l
0.33 0 l
1.20 0 l
0.36 0 l
0.06 0 l
0.13 0 l
o
0.00 0.00 504.00 504.00 cl
/Font2 findfont 14 s
0 0 0 srgb
103.43 469.45 (Accurac) 0 ta
-0.140 (y f) tb
-0.280 (or Simple Feedf) tb
-0.280 (orwar) tb
-0.280 (d ANN on MNIST) tb gr
/Font1 findfont 12 s
266.40 18.72 (Steps) .5 0 t
12.96 234.53 (Accur) 90 ta
-0.120 (acy) tb gr
59.04 73.44 473.76 444.96 cl
0 0 1 srgb
0.75 setlinewidth
[] 0 setdash
1 setlinecap
1 setlinejoin
10.00 setmiterlimit
np
73.99 19.44 m
0.50 129.70 l
0.12 17.24 l
1.23 75.36 l
0.04 1.88 l
0.08 1.51 l
0.88 17.11 l
0.04 1.26 l
0.27 5.28 l
0.04 1.14 l
0.61 5.91 l
1.35 12.71 l
1.08 6.29 l
0.15 1.88 l
0.04 -0.50 l
0.50 3.52 l
1.04 4.91 l
0.19 0.50 l
0.35 0.63 l
0.30 1.39 l
0.39 1.88 l
0.65 2.52 l
0.43 1.13 l
0.84 1.51 l
0.12 0.50 l
0.08 0.51 l
1.00 1.63 l
0.11 1.39 l
0.39 -0.13 l
0.27 1.51 l
0.46 0.88 l
0.23 0.63 l
0.19 0.75 l
0.15 0.38 l
1.04 2.64 l
0.35 0.38 l
0.54 0.88 l
0.34 0.38 l
0.47 0.50 l
0.34 0.63 l
1.96 3.52 l
0.27 0.76 l
0.04 -1.51 l
0.12 1.01 l
0.23 0.63 l
0.04 -0.51 l
0.57 0.63 l
0.43 1.01 l
0.04 -0.76 l
0.03 0.25 l
0.04 -0.37 l
0.39 0.12 l
0.38 0.76 l
0.27 -0.25 l
0.31 0.37 l
0.15 0.25 l
0.39 0 l
0.46 1.01 l
0.54 1.26 l
0.34 0 l
0.47 0.63 l
0.42 0.88 l
0.12 -0.25 l
0.19 0.12 l
0.81 1.01 l
0.07 0.13 l
0.19 0 l
0.16 0.25 l
0.27 -0.25 l
1.34 1.51 l
0.12 0.25 l
0.23 -0.13 l
0.27 0 l
0.08 0.25 l
0.07 0.13 l
1.20 1.00 l
0.19 0.63 l
0.04 -0.50 l
0.57 0.13 l
0.04 0 l
0.16 -0.13 l
0.07 0.13 l
0.20 0.25 l
0.57 0.25 l
0.31 0.25 l
0.04 -0.12 l
0.19 0.37 l
0.43 -0.25 l
0.38 0.76 l
0.27 0.12 l
0.12 -0.38 l
0.07 0.38 l
0.50 0.38 l
0.12 -0.13 l
0.34 0.88 l
0.66 -1.00 l
0.38 0.88 l
1.31 0.25 l
0.12 -0.13 l
0.69 0.26 l
112.39 345.02 lineto
0.08 0.13 l
1.27 0.25 l
0.08 0.13 l
0.46 -0.13 l
0.11 0 l
0.27 0 l
0.23 0.25 l
0.73 0.63 l
1.58 0.50 l
0.08 0.13 l
0.81 0.38 l
0.07 0.25 l
0.31 0 l
0.19 -0.38 l
0.23 0.13 l
0.74 0 l
0.26 0.50 l
0.35 -0.12 l
0.19 0 l
0.23 0.37 l
0.47 0 l
0.38 0.25 l
0.15 0 l
0.12 0.26 l
0.19 0.37 l
0.27 -0.37 l
0.66 1.25 l
0.30 0.13 l
0.58 -0.38 l
0.19 1.01 l
0.08 -0.50 l
0.15 0.25 l
0.04 0 l
0.50 0.25 l
1.00 0 l
0.89 0.12 l
1.00 0.38 l
0.38 -0.25 l
0.04 0 l
0.04 0 l
0.12 0 l
0.07 0.25 l
0.12 -0.12 l
0.11 0.37 l
1.27 0.38 l
0.16 0.13 l
0.30 -0.25 l
0.35 0.25 l
0.04 -0.25 l
0.38 0.25 l
0.81 0.50 l
0.35 0.13 l
0.38 0.25 l
0.58 0.63 l
0.15 -0.63 l
1.00 0 l
0.35 0.75 l
0.50 -0.25 l
0.15 0.38 l
0.70 -0.13 l
0.11 -0.12 l
0.04 0 l
0.12 -0.26 l
0.07 0 l
0.16 0.51 l
0.34 -0.38 l
0.08 0.25 l
0.15 0.13 l
0.04 -0.25 l
0.16 0.25 l
0.19 -0.13 l
1.65 0.51 l
0.77 -0.26 l
0.73 -0.12 l
0.12 0.38 l
0.31 -0.38 l
0.27 0.12 l
0.96 0.13 l
0.11 0.13 l
0.54 -0.26 l
0.16 -0.12 l
0.30 0.12 l
0.12 0.26 l
0.12 -0.13 l
0.11 0 l
1.16 0.38 l
0.07 -0.25 l
0.54 0.37 l
0.19 0 l
0.20 0.13 l
0.42 -0.13 l
0.50 0.25 l
0.11 -0.12 l
0.66 0.12 l
0.65 0.13 l
0.23 0 l
0.27 0.13 l
0.54 -0.13 l
0.62 0.38 l
150.10 355.21 lineto
0.27 -0.12 l
1.23 0.25 l
0.61 0.25 l
0.50 0 l
0.85 0.13 l
0.23 0 l
0.16 0.25 l
0.15 0.12 l
0.19 -0.25 l
0.54 -0.12 l
0.08 0.25 l
0.92 -0.13 l
1.19 0.13 l
0.35 -0.38 l
0.04 0.13 l
0.15 0.12 l
0.39 0 l
0.11 -0.12 l
0.08 0 l
0.04 0 l
0.38 0 l
0.35 0 l
0.27 0.12 l
0.15 -0.25 l
0.85 0.13 l
0.77 -0.13 l
0.04 0.38 l
0.11 0 l
0.04 0 l
0.23 -0.13 l
0.04 -0.38 l
0.42 0.51 l
0.66 0.12 l
0.15 0.13 l
0.12 0 l
0.34 0 l
1.43 0.13 l
1.46 0.37 l
0.69 -0.50 l
0.04 0.38 l
0.88 0.37 l
1.00 0.13 l
0.04 -0.13 l
0.39 0.13 l
1.11 -0.13 l
0.04 0 l
0.19 0.38 l
0.47 -0.12 l
0.61 0.37 l
0.16 -0.12 l
0.11 0.12 l
0.15 -0.37 l
0.24 0 l
0.84 0.25 l
0.35 -0.13 l
0.08 0.13 l
0.11 0.25 l
0.19 -0.25 l
0.27 -0.13 l
0.31 0.25 l
0.15 0 l
0.31 0.13 l
0.69 -0.13 l
0.24 0.13 l
0.50 0.25 l
0.07 -0.12 l
0.31 0.12 l
0.58 0 l
0.04 0.25 l
0.50 -0.12 l
0.34 0 l
0.08 0 l
0.08 0 l
0.19 0 l
0.04 0 l
0.27 0 l
0.07 0.37 l
0.23 -0.37 l
0.12 0.25 l
0.19 -0.25 l
0.27 0 l
0.31 0.12 l
0.69 0.25 l
0.08 0 l
0.54 0.26 l
0.07 -0.26 l
0.20 0.13 l
0.19 0.13 l
0.27 0 l
0.23 -0.13 l
0.77 0.25 l
0.42 0 l
0.23 -0.25 l
0.39 -0.13 l
0.23 0.26 l
0.19 -0.26 l
0.62 0.38 l
0.30 0.25 l
0.81 -0.12 l
187.69 359.24 lineto
0.15 0 l
0.12 0 l
0.07 0 l
0.16 0 l
0.15 -0.13 l
0.08 0 l
0.77 0.26 l
0.42 0.12 l
0.73 0 l
0.31 0 l
0.46 0.13 l
0.08 0 l
0.35 0.12 l
0.42 0 l
0.11 0 l
0.47 0.13 l
0.38 0.12 l
0.08 -0.12 l
0.11 0 l
0.04 0 l
0.93 -0.13 l
0.15 0 l
0.69 0.13 l
0.81 0.12 l
0.38 0 l
0.93 0.13 l
0.04 0.13 l
2.30 0.12 l
0.27 -0.12 l
0.08 0.12 l
0.50 -0.12 l
0.39 0.12 l
0.03 0.13 l
0.16 -0.13 l
0.19 0.13 l
0.35 -0.13 l
0.04 0 l
0.03 0 l
0.43 0 l
0.15 0 l
0.27 0.25 l
0.85 -0.25 l
0.42 0.13 l
0.08 0 l
0.11 0 l
0.73 -0.13 l
0.50 0 l
0.20 0.25 l
0.42 -0.25 l
0.15 0.13 l
0.04 -0.13 l
0.62 -0.12 l
0.38 0.12 l
0.12 0 l
0.38 0 l
0.77 0.13 l
0.04 0 l
0.19 0 l
0.23 0 l
0.23 0 l
0.24 0 l
1.46 0.12 l
0.04 0 l
0.38 -0.12 l
0.19 0 l
0.04 0 l
0.23 0 l
0.73 0 l
0.08 0 l
0.50 0 l
0.27 0 l
0.04 0 l
0.34 0 l
0.27 0 l
0.35 0 l
0.69 0.37 l
0.08 0.13 l
0.15 0 l
0.81 0 l
0.35 0 l
1.00 0 l
0.57 0 l
0.16 -0.13 l
0.04 0 l
0.15 0.13 l
0.16 0 l
0.07 -0.13 l
0.54 0 l
0.04 0.13 l
0.88 0 l
0.04 0 l
0.23 0 l
0.20 0 l
0.07 0 l
0.39 0 l
0.31 0.13 l
0.42 0 l
0.27 -0.13 l
0.19 0.25 l
222.01 361.13 lineto
0.27 0 l
0.04 0 l
0.03 0 l
0.12 0 l
0.27 0 l
0.77 0 l
0.19 0 l
1.92 0 l
0.16 0 l
0.19 0 l
0.27 0 l
0.19 0 l
0.39 0 l
0.73 0 l
0.81 0 l
0.23 0 l
1.27 0.12 l
0.04 0 l
0.03 0 l
0.54 0 l
0.81 0 l
0.54 0.13 l
0.46 0.25 l
0.58 0.13 l
0.96 -0.13 l
0.15 0 l
0.04 0 l
0.66 0 l
0.07 0 l
0.04 0 l
0.69 0.13 l
0.27 0 l
1.27 0.12 l
0.23 0 l
0.24 0 l
0.11 0 l
0.15 0 l
0.08 0 l
0.16 0 l
0.19 0 l
0.15 0 l
0.19 0 l
0.39 0.13 l
0.42 -0.13 l
1.77 0.25 l
0.23 0.13 l
0.20 0 l
2.30 0.12 l
0.31 0 l
0.39 0.13 l
0.07 -0.13 l
0.16 0.13 l
0.69 -0.13 l
0.19 0 l
0.73 0 l
0.12 0.13 l
0.96 0 l
0.19 0 l
0.04 0 l
0.08 0 l
0.34 0 l
1.20 0.13 l
0.15 0 l
0.96 0.25 l
0.20 0 l
0.34 -0.13 l
0.69 0.13 l
0.54 0 l
0.04 -0.13 l
0.58 0 l
0.46 0.13 l
0.77 0.25 l
0.08 -0.13 l
0.03 -0.12 l
0.12 0.12 l
0.12 0 l
0.34 0 l
0.31 0 l
0.12 -0.12 l
0.61 0.12 l
0.15 -0.12 l
0.27 0 l
0.93 0.25 l
0.61 0.13 l
0.85 -0.26 l
0.54 0.26 l
0.77 0 l
0.34 0.12 l
0.58 0 l
0.04 0 l
0.35 0 l
0.30 0 l
0.12 0 l
0.35 0 l
0.26 0 l
0.47 0.25 l
0.03 -0.12 l
0.12 0 l
0.50 0 l
263.83 363.64 lineto
0.15 0.13 l
0.08 0 l
0.19 0 l
0.27 0 l
0.23 0.12 l
0.04 0 l
0.85 0.26 l
0.19 0 l
0.35 0.12 l
0.42 0 l
0.62 0.13 l
0.65 0.12 l
0.23 -0.12 l
0.08 0.12 l
0.08 0.13 l
0.19 -0.13 l
0.15 0 l
0.73 0.13 l
0.50 0.12 l
0.54 0 l
0.27 0 l
0.50 0 l
0.54 0.13 l
0.08 0 l
0.07 0 l
0.04 0 l
0.08 0 l
0.23 0 l
0.08 0 l
0.07 0 l
0.04 0 l
0.08 0 l
1.35 0.13 l
0.15 -0.13 l
0.15 0.25 l
0.35 -0.25 l
0.31 0.25 l
0.19 0 l
0.23 0 l
0.31 0 l
0.31 0.13 l
0.46 -0.13 l
2.00 0.13 l
0.15 0.12 l
0.08 -0.12 l
0.12 0 l
0.42 0 l
0.34 0 l
0.24 0.12 l
1.11 0.13 l
0.08 -0.13 l
0.19 0.13 l
0.04 -0.13 l
0.77 0.26 l
0.19 0.12 l
0.39 0 l
0.30 0 l
0.89 0.25 l
0.73 0.25 l
0.23 -0.12 l
0.12 0 l
0.46 0.12 l
0.27 0.13 l
0.54 0 l
0.26 0 l
0.35 0 l
0.12 0 l
0.46 0 l
0.54 0.13 l
0.34 0 l
0.12 0 l
0.11 0 l
0.62 0 l
0.15 0 l
0.20 0 l
0.46 0 l
0.27 0.12 l
0.19 -0.12 l
0.69 0.12 l
0.19 0 l
0.08 0 l
0.19 -0.12 l
0.27 0 l
0.70 0 l
0.23 0.12 l
0.57 0.13 l
1.70 0 l
0.15 0 l
0.04 0 l
0.35 0 l
0.19 0.12 l
0.34 0 l
0.27 0 l
1.73 0.13 l
0.39 -0.13 l
0.04 0 l
0.11 0.13 l
1.35 0.13 l
0.35 0 l
300.15 367.17 lineto
0.04 0 l
0.38 0 l
0.47 0.12 l
1.07 0.13 l
0.16 0 l
0.15 0 l
0.04 0 l
0.35 0 l
2.73 0.37 l
0.23 0 l
0.38 0 l
1.39 0 l
0.42 0 l
0.23 0 l
0.70 0 l
0.23 0 l
0.07 0 l
0.93 0 l
0.42 -0.12 l
0.23 0 l
0.23 0 l
0.46 0.12 l
0.23 0 l
0.23 0 l
0.04 0 l
0.08 0.13 l
0.12 -0.13 l
0.26 0 l
0.16 0 l
0.08 0 l
0.19 0 l
0.31 0.13 l
0.27 0.13 l
0.15 -0.26 l
1.19 0.13 l
1.19 0 l
0.27 0 l
0.74 0 l
0.03 0 l
0.16 0 l
0.11 0 l
0.04 0 l
0.04 0 l
0.35 0 l
0.27 0 l
0.19 0 l
0.23 0 l
1.15 0 l
0.04 0 l
0.81 0 l
0.38 0.13 l
1.24 0 l
0.46 0 l
0.50 0.12 l
0.04 0.13 l
0.84 0 l
0.31 0 l
0.65 0 l
0.23 0 l
0.31 0 l
0.70 0.12 l
0.53 0.13 l
0.73 0 l
0.24 0 l
0.03 0 l
0.27 0.12 l
0.66 0 l
0.27 0 l
0.50 0.13 l
0.04 0 l
1.46 0 l
0.04 0 l
0.65 0.13 l
0.15 0 l
0.58 0 l
0.39 0 l
1.07 0 l
0.16 0 l
0.27 0 l
0.38 0 l
1.04 0 l
0.19 0 l
0.04 0 l
0.35 0 l
1.46 0.12 l
0.27 0 l
0.34 0 l
0.04 0 l
0.04 0 l
0.96 0.13 l
0.16 0 l
0.15 0.12 l
0.12 -0.12 l
0.38 0.12 l
0.96 0 l
0.08 0.13 l
0.31 0 l
0.15 -0.13 l
0.31 0.13 l
341.90 369.43 lineto
1.07 0.13 l
0.04 0 l
0.35 0 l
0.08 0 l
0.27 0.12 l
0.15 0 l
0.46 0.13 l
0.73 -0.13 l
0.08 0.13 l
0.50 0 l
0.46 0.12 l
0.04 -0.12 l
0.11 0.12 l
0.08 0 l
0.58 0 l
0.08 0 l
0.19 0 l
0.31 0 l
0.23 0 l
0.11 0 l
2.23 0.13 l
0.35 0 l
0.08 0 l
0.07 0 l
0.12 0 l
0.04 0 l
0.65 0 l
0.31 0 l
0.15 0 l
0.12 0 l
0.04 0 l
0.27 0 l
1.15 0.25 l
0.81 0 l
0.15 0 l
0.12 0 l
0.31 0 l
0.15 0 l
0.12 0 l
0.80 0 l
0.12 0 l
0.35 0 l
0.11 0 l
0.04 0 l
0.11 0 l
0.66 0 l
0.11 0 l
0.12 0 l
0.04 0 l
0.11 0.13 l
0.62 0.12 l
0.73 0 l
1.50 0 l
0.15 0.13 l
0.08 0 l
0.16 0 l
0.23 0 l
0.61 0 l
0.08 0 l
0.04 0 l
0.84 0 l
1.31 0 l
0.66 0 l
0.50 0 l
0.69 0 l
0.58 0.12 l
0.42 0 l
0.31 0.13 l
0.88 0.25 l
0.04 -0.12 l
0.08 0 l
0.46 0.12 l
0.08 0 l
0.38 0.13 l
0.15 0 l
1.31 0 l
0.16 0 l
0.42 0 l
0.46 0 l
0.81 0 l
0.38 0.12 l
0.39 0 l
1.42 0.25 l
0.23 0 l
0.62 0 l
0.81 0 l
0.46 0 l
0.69 0 l
0.23 0.13 l
0.19 0 l
0.04 0 l
0.81 0 l
0.27 0 l
0.19 0 l
0.27 0 l
0.81 0.13 l
0.50 -0.13 l
1.04 0.13 l
0.35 0 l
382.83 372.07 lineto
0.08 0 l
0.35 0 l
0.58 0 l
0.30 0 l
1.27 0 l
0.50 0 l
0.46 0 l
0.66 0 l
0.15 0 l
0.27 0 l
0.39 0 l
0.07 0 l
0.04 0 l
0.04 0 l
0.12 0 l
0.11 0.13 l
0.16 0 l
0.34 0 l
0.19 0.12 l
0.39 0 l
0.58 0 l
0.30 0 l
0.16 0 l
0.61 0 l
1.27 0 l
0.16 0 l
0.57 0.13 l
1.00 0.12 l
0.12 0 l
0.50 0 l
0.04 0 l
0.11 0 l
0.27 0 l
0.12 0 l
0.15 0 l
0.23 0 l
0.54 0 l
0.27 0 l
0.15 0 l
0.04 0 l
0.12 0 l
0.15 0 l
0.27 0 l
0.19 0 l
0.43 0 l
0.57 0.13 l
0.24 0 l
0.15 0 l
0.46 0 l
0.54 0 l
0.27 0 l
0.19 0 l
0.04 0 l
0.04 0 l
0.04 0.13 l
0.23 0 l
0.27 0 l
0.65 0 l
0.92 0 l
1.12 0 l
0.42 0 l
0.08 0 l
0.58 0 l
0.19 0 l
0.62 0 l
0.34 0 l
0.39 0 l
0.57 0.12 l
0.58 0 l
0.15 0 l
0.20 0 l
0.57 0 l
0.31 0.13 l
0.39 0 l
0.19 0 l
0.69 0.12 l
0.54 0.13 l
0.08 -0.13 l
1.42 0.51 l
0.04 0 l
0.54 0.12 l
0.34 0 l
0.39 0 l
0.58 0 l
0.65 0 l
0.23 0 l
0.16 0 l
0.42 0.13 l
0.04 0 l
0.15 0 l
0.08 0 l
0.61 0.25 l
0.12 0 l
0.46 0 l
0.04 0 l
0.11 0 l
0.27 0 l
0.12 0 l
0.27 0.13 l
417.50 374.34 lineto
0.15 0 l
0.74 0.12 l
0.07 0 l
0.35 0.13 l
0.61 0 l
0.08 0 l
0.08 0 l
0.08 0 l
0.26 0 l
0.81 0 l
0.27 0 l
0.81 0.12 l
0.65 0.13 l
0.43 0 l
0.54 0 l
0.34 0 l
0.31 0 l
0.58 0 l
0.19 0 l
0.04 0 l
0.81 0 l
0.03 0 l
0.58 0 l
1.04 0.25 l
0.50 0 l
0.85 0 l
0.30 0 l
0.93 0.13 l
0.27 0.12 l
0.38 0.13 l
0.27 0 l
0.12 0 l
0.69 0 l
0.42 0 l
0.43 0 l
0.38 0.12 l
0.50 0 l
0.62 0 l
0.11 0 l
0.27 0 l
0.35 0 l
0.15 0 l
0.04 0 l
0.19 0 l
0.31 0 l
0.62 0.13 l
0.77 0 l
0.23 0.13 l
0.80 0 l
0.70 0.12 l
0.23 -0.12 l
0.19 0.12 l
0.42 0 l
0.70 0 l
0.07 0 l
0.12 0 l
0.50 0 l
0.04 0 l
0.61 0 l
0.50 0 l
2.04 0.25 l
0.19 0 l
0.16 0 l
0.54 0 l
0.88 0 l
0.39 0 l
0.11 0 l
0.31 0 l
0.58 0 l
1.04 0 l
0.11 0 l
0.12 0 l
0.30 0 l
0.31 0 l
0.12 0 l
0.07 0 l
0.74 0 l
0.23 0 l
0.50 0 l
0.04 0 l
0.07 0 l
1.08 0 l
0.08 0 l
0.15 0 l
0.12 0 l
0.84 0.13 l
0.46 0 l
0.62 0 l
0.27 0 l
0.27 0 l
0.58 0 l
0.42 0 l
0.34 0.12 l
0.24 -0.12 l
0.30 0.12 l
0.89 0 l
0.54 0 l
0.38 0 l
0.04 0 l
o
0.8275 0.8275 0.8275 srgb
0.75 setlinewidth
[ 0.75 2.25 3.75 2.25] 0 setdash
np
73.65 73.44 m
0 371.52 l
o
np
163.33 73.44 m
0 371.52 l
o
np
253.02 73.44 m
0 371.52 l
o
np
342.71 73.44 m
0 371.52 l
o
np
432.39 73.44 m
0 371.52 l
o
np
59.04 116.69 m
414.72 0 l
o
np
59.04 179.59 m
414.72 0 l
o
np
59.04 242.49 m
414.72 0 l
o
np
59.04 305.39 m
414.72 0 l
o
np
59.04 368.30 m
414.72 0 l
o
np
59.04 431.20 m
414.72 0 l
o
0.00 0.00 504.00 504.00 cl
0 0 0 srgb
0.75 setlinewidth
[] 0 setdash
1 setlinecap
1 setlinejoin
10.00 setmiterlimit
np
59.04 73.44 m
0 371.52 l
o
np
59.04 116.69 m
-7.20 0 l
o
np
59.04 179.59 m
-7.20 0 l
o
np
59.04 242.49 m
-7.20 0 l
o
np
59.04 305.39 m
-7.20 0 l
o
np
59.04 368.30 m
-7.20 0 l
o
np
59.04 431.20 m
-7.20 0 l
o
/Font1 findfont 12 s
41.76 116.69 (0.75) .5 90 t
41.76 179.59 (0.80) .5 90 t
41.76 242.49 (0.85) .5 90 t
41.76 305.39 (0.90) .5 90 t
41.76 368.30 (0.95) .5 90 t
41.76 431.20 (1.00) .5 90 t
np
73.65 73.44 m
400.11 0 l
o
np
73.65 73.44 m
0 -7.20 l
o
np
163.33 73.44 m
0 -7.20 l
o
np
253.02 73.44 m
0 -7.20 l
o
np
342.71 73.44 m
0 -7.20 l
o
np
432.39 73.44 m
0 -7.20 l
o
73.65 47.52 (0M) .5 0 t
163.33 47.52 (1M) .5 0 t
253.02 47.52 (2M) .5 0 t
342.71 47.52 (3M) .5 0 t
432.39 47.52 (4M) .5 0 t
np
59.04 73.44 m
414.72 0 l
0 371.52 l
-414.72 0 l
0 -371.52 l
o
ep
%%Trailer
%%Pages: 1
%%EOF
