%!PS-Adobe-3.0 EPSF-3.0
%%DocumentNeededResources: font Helvetica
%%+ font Helvetica-Bold
%%+ font Helvetica-Oblique
%%+ font Helvetica-BoldOblique
%%+ font Symbol
%%Title: R Graphics Output
%%Creator: R Software
%%Pages: (atend)
%%BoundingBox: 0 0 504 504
%%EndComments
%%BeginProlog
/bp  { gs sRGB gs } def
% begin .ps.prolog
/gs  { gsave } bind def
/gr  { grestore } bind def
/ep  { showpage gr gr } bind def
/m   { moveto } bind def
/l  { rlineto } bind def
/np  { newpath } bind def
/cp  { closepath } bind def
/f   { fill } bind def
/o   { stroke } bind def
/c   { newpath 0 360 arc } bind def
/r   { 4 2 roll moveto 1 copy 3 -1 roll exch 0 exch rlineto 0 rlineto -1 mul 0 exch rlineto closepath } bind def
/p1  { stroke } bind def
/p2  { gsave bg fill grestore newpath } bind def
/p3  { gsave bg fill grestore stroke } bind def
/p6  { gsave bg eofill grestore newpath } bind def
/p7  { gsave bg eofill grestore stroke } bind def
/t   { 5 -2 roll moveto gsave rotate
       1 index stringwidth pop
       mul neg 0 rmoveto show grestore } bind def
/ta  { 4 -2 roll moveto gsave rotate show } bind def
/tb  { 2 -1 roll 0 rmoveto show } bind def
/cl  { grestore gsave newpath 3 index 3 index moveto 1 index
       4 -1 roll lineto  exch 1 index lineto lineto
       closepath clip newpath } bind def
/rgb { setrgbcolor } bind def
/s   { scalefont setfont } bind def
% end   .ps.prolog
/sRGB { [ /CIEBasedABC
          << /DecodeLMN
               [ { dup 0.03928 le
                        {12.92321 div}
                        {0.055 add 1.055 div 2.4 exp }
                     ifelse
                 } bind dup dup
               ]
             /MatrixLMN [0.412457 0.212673 0.019334
                         0.357576 0.715152 0.119192
                         0.180437 0.072175 0.950301]
             /WhitePoint [0.9505 1.0 1.0890]
           >>
         ] setcolorspace } bind def
/srgb { setcolor } bind def
%%IncludeResource: font Helvetica
/Helvetica findfont
dup length dict begin
  {1 index /FID ne {def} {pop pop} ifelse} forall
  /Encoding ISOLatin1Encoding def
  currentdict
  end
/Font1 exch definefont pop
%%IncludeResource: font Helvetica-Bold
/Helvetica-Bold findfont
dup length dict begin
  {1 index /FID ne {def} {pop pop} ifelse} forall
  /Encoding ISOLatin1Encoding def
  currentdict
  end
/Font2 exch definefont pop
%%IncludeResource: font Helvetica-Oblique
/Helvetica-Oblique findfont
dup length dict begin
  {1 index /FID ne {def} {pop pop} ifelse} forall
  /Encoding ISOLatin1Encoding def
  currentdict
  end
/Font3 exch definefont pop
%%IncludeResource: font Helvetica-BoldOblique
/Helvetica-BoldOblique findfont
dup length dict begin
  {1 index /FID ne {def} {pop pop} ifelse} forall
  /Encoding ISOLatin1Encoding def
  currentdict
  end
/Font4 exch definefont pop
%%IncludeResource: font Symbol
/Symbol findfont
dup length dict begin
  {1 index /FID ne {def} {pop pop} ifelse} forall
  currentdict
  end
/Font5 exch definefont pop
%%EndProlog
%%Page: 1 1
bp
59.04 73.44 473.76 444.96 cl
1 0.3020 0 srgb
0.75 setlinewidth
[] 0 setdash
1 setlinecap
1 setlinejoin
10.00 setmiterlimit
np
74.40 96.25 m
0.06 3.02 l
0 -12.07 l
0.62 75.44 l
0.33 -3.02 l
0.57 33.19 l
0.33 21.13 l
0.21 24.14 l
0.13 -3.02 l
0.90 36.21 l
0.43 -12.07 l
0.16 15.09 l
0.36 24.14 l
0.50 -27.16 l
0.26 36.21 l
0.23 -12.07 l
0.55 9.05 l
0.18 -27.15 l
0.62 21.12 l
0.22 -3.02 l
0 -12.07 l
0.01 24.14 l
0.03 -3.02 l
0.14 21.13 l
0.28 -3.02 l
0.03 -18.11 l
1.85 21.13 l
0.98 24.14 l
0.31 -30.18 l
0.78 54.32 l
0.23 -21.13 l
0.97 -21.12 l
0.55 24.14 l
0.08 -6.03 l
0.21 -24.14 l
0.67 15.08 l
0.18 0 l
0.71 12.07 l
0.31 -12.07 l
0.93 24.14 l
0.85 -9.05 l
0.25 0 l
0.03 -3.02 l
0.16 0 l
0.03 -18.10 l
0.34 9.05 l
0.20 12.07 l
0.70 -27.16 l
0.07 30.18 l
0.33 -48.28 l
0.05 39.23 l
0.16 0 l
0.23 0 l
0.06 -9.06 l
0.16 9.06 l
0.09 -9.06 l
0.04 6.04 l
0.38 18.10 l
0.06 0 l
0.84 12.07 l
1.05 -15.08 l
0.35 -12.07 l
0.17 6.03 l
0.03 3.02 l
0.69 -9.05 l
0.20 12.07 l
0.12 -9.06 l
0.23 24.14 l
1.09 -21.12 l
0.62 0 l
0.13 18.11 l
0.28 -6.04 l
0.01 -27.16 l
0.09 39.23 l
0.16 0 l
0.53 6.04 l
0.18 -18.11 l
0.13 24.14 l
0.12 -15.09 l
0.02 -21.12 l
0.12 -9.05 l
0.44 27.16 l
0.01 0 l
0.24 -9.06 l
0.35 0 l
0.09 -30.17 l
0.39 21.12 l
0.21 3.02 l
0.59 27.16 l
0.17 -15.09 l
0.28 3.02 l
0.11 -18.11 l
1.04 18.11 l
0.04 12.07 l
0.17 -6.04 l
0.01 -15.09 l
0.39 -18.10 l
0.42 27.16 l
0.11 3.01 l
0.93 -6.03 l
109.19 382.92 lineto
0.10 -18.11 l
0.40 3.02 l
0.08 3.02 l
0.19 6.03 l
0.02 -18.10 l
1.39 15.09 l
0.20 6.03 l
0.46 -42.24 l
0.45 33.19 l
0.65 -6.04 l
1.36 3.02 l
0.02 3.02 l
0.21 18.10 l
0.34 -18.10 l
0.07 -6.04 l
1.40 9.06 l
0.21 3.01 l
0.53 0 l
0.39 -21.12 l
0.69 24.14 l
0.03 15.09 l
0.44 -12.07 l
1.61 -9.05 l
1.11 15.08 l
0.18 -27.15 l
0.84 27.15 l
0.21 -27.15 l
0.04 18.10 l
1.03 -9.05 l
0.15 6.03 l
1.11 0 l
1.11 6.04 l
0.49 9.05 l
0.42 -6.03 l
0.67 9.05 l
0.27 6.03 l
0.02 -12.07 l
0.30 0 l
0.12 -3.01 l
0.06 -6.04 l
0.07 18.11 l
0.26 -9.06 l
0.29 9.06 l
0.95 -21.13 l
0.13 -6.03 l
0.15 36.21 l
0.04 -15.09 l
0.61 -12.07 l
0.39 -15.09 l
0.77 24.14 l
0.69 -15.08 l
0.71 18.10 l
0.05 -21.12 l
0.07 18.10 l
0.52 12.07 l
0.32 -6.03 l
0.49 -9.05 l
0.20 -18.11 l
0.40 24.14 l
0.15 -21.12 l
0.69 18.10 l
0.80 15.09 l
0.24 -21.12 l
0.21 -15.09 l
0.43 21.12 l
0.03 -18.10 l
0.46 21.12 l
0.42 -15.09 l
0.35 -9.05 l
0.01 24.14 l
0.06 -15.09 l
0.27 0 l
0.36 21.13 l
0.09 -15.09 l
0.25 6.03 l
0.43 -36.21 l
0.07 21.13 l
1.01 9.05 l
0.11 9.05 l
0.41 -6.03 l
0.10 6.03 l
0.83 -12.07 l
0.44 -6.03 l
0.81 24.14 l
0.15 -18.11 l
0.18 12.07 l
0.13 0 l
0.14 -3.02 l
0.30 18.11 l
0 -24.14 l
0.17 3.02 l
0.01 -15.09 l
0.52 36.21 l
0.25 -24.14 l
0.88 -9.05 l
0.33 21.12 l
0.01 -9.05 l
0.07 9.05 l
0.48 -6.04 l
148.85 379.90 lineto
0.79 12.07 l
0.50 -15.09 l
0.25 18.11 l
0.96 -3.02 l
0.34 -3.02 l
0.52 -6.03 l
0.01 12.07 l
0.10 -21.12 l
0.09 6.03 l
0.04 -12.07 l
0.03 30.18 l
0.29 -18.11 l
0.02 0 l
0.01 12.07 l
0.29 -9.05 l
0.11 3.02 l
0.17 3.01 l
0.08 3.02 l
0.39 -12.07 l
0.02 9.05 l
0.30 6.04 l
0.37 -3.02 l
0.44 9.05 l
0.72 -12.07 l
0.09 6.04 l
0.35 6.03 l
0 -21.12 l
1.45 -3.02 l
0.27 3.02 l
0.57 15.09 l
0.31 6.03 l
0.03 -21.12 l
0.87 3.02 l
1.42 -3.02 l
0.35 18.11 l
0.08 12.07 l
0.07 -27.16 l
0.21 15.09 l
0.46 -12.07 l
0.37 24.14 l
0.41 -12.07 l
0.10 -15.09 l
0.44 18.10 l
0.15 3.02 l
0.10 -12.07 l
0.14 0 l
0.12 -27.16 l
0.08 -3.01 l
0 27.15 l
0.08 6.04 l
0.67 -9.05 l
0.19 -3.02 l
0.09 6.03 l
0.61 24.14 l
0.01 -15.08 l
0.53 -21.13 l
0.48 15.09 l
0.16 6.04 l
0.35 -3.02 l
1.09 0 l
0.62 -3.02 l
0.26 6.04 l
0.52 -15.09 l
0.22 9.05 l
0.49 -18.10 l
0.18 15.08 l
0.02 3.02 l
0.31 0 l
0.33 -12.07 l
0.27 18.11 l
0.23 -9.06 l
0.85 0 l
0.03 6.04 l
0.17 0 l
1.33 9.05 l
0.53 -15.09 l
0.18 -9.05 l
0.90 18.11 l
0.03 -15.09 l
0.19 18.10 l
0.14 -6.03 l
0.23 -3.02 l
0.26 6.04 l
0.18 0 l
0.89 0 l
0.33 -21.13 l
0.61 24.14 l
0.57 -3.01 l
0.56 -3.02 l
0.27 12.07 l
0.85 -12.07 l
0.14 21.12 l
0.42 -18.10 l
0.11 -9.06 l
1.10 -3.01 l
0.06 21.12 l
0.87 -6.04 l
1.45 -21.12 l
0.23 33.19 l
185.85 394.99 lineto
0.06 0 l
0.31 -3.02 l
0.17 3.02 l
0.27 12.07 l
0.38 -18.11 l
0.21 -6.03 l
0.30 12.07 l
0.17 6.03 l
0.09 -6.03 l
0.28 -6.04 l
0.78 12.07 l
0.88 3.02 l
0.38 0 l
0.12 6.04 l
0.36 -3.02 l
0.01 -3.02 l
0.34 9.05 l
0.03 -18.10 l
0.34 9.05 l
0.54 -3.02 l
0.07 6.04 l
1.40 -18.11 l
0.14 12.07 l
0.13 3.02 l
0.30 -3.02 l
0.11 -18.10 l
0.19 15.09 l
0.50 -9.06 l
0.11 9.06 l
0.55 -9.06 l
0.34 6.04 l
0.39 -12.07 l
0.30 24.14 l
0.49 -9.05 l
0.02 0 l
1.01 -15.09 l
0 18.10 l
0.16 0 l
0.96 6.04 l
0.13 -9.05 l
0.85 3.01 l
0.07 9.06 l
0.87 -12.07 l
0.12 -6.04 l
0.48 9.05 l
0.33 -21.12 l
0.18 36.21 l
0.52 -30.17 l
0.44 15.08 l
0.18 12.07 l
0.47 -12.07 l
0.02 9.06 l
0.31 0 l
0.16 -15.09 l
0.53 -3.02 l
0.65 -3.02 l
0.02 6.04 l
1.09 3.02 l
0.22 9.05 l
0.29 0 l
0.22 -15.09 l
0.05 9.05 l
1.08 -6.03 l
0.16 0 l
0.24 -3.02 l
0.47 18.11 l
1.05 -18.11 l
0.51 18.11 l
0.30 -15.09 l
0.19 0 l
0.19 3.02 l
0.31 12.07 l
0.40 -3.02 l
0.29 -6.04 l
0.52 0 l
0.57 6.04 l
0.36 0 l
0.31 -3.02 l
0.09 15.09 l
0.30 -18.11 l
0.72 -6.03 l
0.09 6.03 l
0.16 0 l
0.20 -12.07 l
0.31 12.07 l
0.15 3.02 l
0.32 -21.12 l
0.95 30.17 l
0.11 -3.01 l
0.26 -15.09 l
0.27 9.05 l
0.15 -6.03 l
0.70 3.01 l
0.03 9.06 l
0.07 3.01 l
0.13 -21.12 l
0.83 0 l
0.17 3.02 l
0.33 -12.07 l
221.00 404.04 lineto
1.05 9.05 l
0.25 0 l
0.41 -27.15 l
0.25 15.08 l
0.97 0 l
0.07 0 l
0.01 -3.01 l
0.02 -9.06 l
0.06 6.04 l
0.01 12.07 l
0.14 -12.07 l
0.12 15.09 l
0.03 0 l
0.03 -15.09 l
0.44 18.10 l
1.79 -15.08 l
1.77 3.01 l
0.16 12.07 l
0.09 -18.10 l
0.84 0 l
0.22 0 l
0.02 0 l
0.69 0 l
0.06 -3.02 l
0.74 -6.03 l
0.49 6.03 l
0.05 9.05 l
0.05 12.07 l
1.54 -18.10 l
0.19 12.07 l
0.35 -3.02 l
0.16 3.02 l
0.34 -21.12 l
0.04 12.07 l
0.12 3.01 l
0.01 12.07 l
0.98 -15.08 l
0.74 -3.02 l
0.06 15.09 l
0.89 -15.09 l
0.90 12.07 l
0.18 0 l
0.37 -3.02 l
1.73 -6.03 l
0.67 6.03 l
0.26 -3.02 l
0.40 9.06 l
0.05 -9.06 l
0.09 18.11 l
0.12 -18.11 l
0.51 15.09 l
0.07 -12.07 l
0.10 -3.02 l
0.64 -9.05 l
0.47 6.04 l
0.36 0 l
0.19 15.08 l
1.45 -21.12 l
0.37 -21.12 l
1.32 36.21 l
0.40 -18.11 l
0 18.11 l
0.35 -21.12 l
0.25 15.08 l
0.30 -9.05 l
0.02 18.11 l
0.01 -21.13 l
0.19 9.06 l
0.12 3.01 l
2.99 -12.07 l
0.01 9.06 l
0.85 21.12 l
0.12 -27.16 l
0.01 6.04 l
0.12 -3.02 l
1.89 24.14 l
0.68 -18.11 l
0.02 -6.03 l
0.05 18.10 l
0.10 0 l
0.16 -15.08 l
0.25 6.03 l
0.33 -3.02 l
0.02 3.02 l
0.08 -9.05 l
0.41 -6.04 l
0.12 -3.01 l
0.17 24.14 l
0.06 -6.04 l
0.24 -9.05 l
0.20 12.07 l
0.14 9.05 l
0.59 -9.05 l
1.10 3.02 l
0.11 6.03 l
0.09 -18.10 l
0.40 3.01 l
0.52 6.04 l
0.10 9.05 l
262.17 404.04 lineto
0.15 0 l
3.01 -6.03 l
0.34 12.07 l
0.51 0 l
0.22 -12.07 l
0.41 9.05 l
0.14 -6.04 l
0.91 -3.01 l
0.83 -15.09 l
1.04 33.19 l
0.32 -15.09 l
0.31 6.04 l
1.60 6.03 l
1.04 -12.07 l
0.77 12.07 l
0.68 -3.01 l
0.22 -9.06 l
0.12 -6.03 l
0.16 6.03 l
0.59 -3.01 l
0.11 15.08 l
0.27 -3.01 l
0.11 -9.06 l
0.36 9.06 l
1.97 -6.04 l
0.22 -3.02 l
0.31 9.06 l
0.77 -21.13 l
0.10 18.11 l
0.21 -15.09 l
0.35 0 l
1.06 0 l
0.86 9.05 l
0.17 6.04 l
0.02 6.03 l
0.50 -15.08 l
0.22 -3.02 l
0.64 6.03 l
0.27 -9.05 l
0.67 9.05 l
0.07 0 l
0.02 18.11 l
0.29 -24.14 l
0.63 12.07 l
0.31 -9.05 l
0.02 9.05 l
0.30 -15.09 l
0.69 15.09 l
0.05 -12.07 l
0.10 21.12 l
0.50 -3.02 l
0 -21.12 l
0.12 24.14 l
0.56 -30.17 l
0.49 24.14 l
0.15 -3.02 l
0.50 -36.21 l
0.98 39.23 l
0.24 -21.13 l
0.13 21.13 l
0.38 -3.02 l
0.01 6.03 l
0.08 -9.05 l
0.25 0 l
0.80 -6.03 l
0.04 3.01 l
0.06 0 l
0.87 9.06 l
0.08 9.05 l
0.02 -21.12 l
0.03 -3.02 l
0.04 0 l
0.24 9.05 l
0.79 6.04 l
0.07 6.03 l
0.02 -6.03 l
0.08 -21.13 l
0.06 12.07 l
0.01 9.06 l
0.21 -9.06 l
0.10 12.07 l
0.28 -3.01 l
1.07 -9.06 l
0.23 0 l
0.12 9.06 l
0.32 -15.09 l
0.20 12.07 l
1.12 -21.12 l
0.09 21.12 l
0.30 15.09 l
0.56 -6.04 l
0.83 -12.07 l
0.17 0 l
0.48 6.04 l
0.06 3.01 l
0.37 3.02 l
0.49 0 l
0.21 -9.05 l
0.04 3.02 l
302.09 404.04 lineto
0.56 6.04 l
0.16 -6.04 l
0.92 3.02 l
1.18 0 l
0.17 -6.04 l
0.16 18.11 l
0.45 -9.05 l
0.16 3.01 l
0.18 -12.07 l
0.23 3.02 l
0.01 3.02 l
0.43 -9.05 l
0.55 6.03 l
0.12 -15.09 l
0.34 9.06 l
0.05 6.03 l
0.12 18.11 l
1.24 -18.11 l
0.49 6.04 l
1.01 -6.04 l
0.10 12.07 l
0.80 3.02 l
1.10 -9.05 l
0.33 9.05 l
0.31 -12.07 l
0.38 0 l
0.16 18.10 l
0.42 -18.10 l
0.13 -6.04 l
0.55 -3.01 l
1.14 9.05 l
0.29 6.03 l
0.05 -3.01 l
0.06 3.01 l
0.01 -18.10 l
0.28 -3.02 l
0.19 24.14 l
0.16 -6.03 l
0.05 0 l
0.14 3.01 l
0.01 -9.05 l
0.01 3.02 l
0.23 0 l
0.80 -3.02 l
0.38 -3.02 l
0.04 12.07 l
1.00 0 l
0.46 -9.05 l
0.02 0 l
0.36 -9.05 l
0.14 12.07 l
0.20 -12.07 l
1.11 18.10 l
0.34 -3.01 l
0.16 0 l
0.38 12.07 l
0.21 -12.07 l
0.29 -6.04 l
0.57 12.07 l
0.03 -15.09 l
0.01 0 l
0.25 -21.12 l
0.61 33.19 l
0.35 -21.12 l
0.27 21.12 l
0.95 -3.01 l
0.01 6.03 l
0.15 6.04 l
0.72 -18.11 l
0.73 15.09 l
0.61 -30.18 l
0.29 6.04 l
0.01 9.05 l
0.21 21.12 l
0.05 -15.08 l
0.32 -9.06 l
0.83 12.07 l
0.03 -6.03 l
0.35 0 l
0.76 6.03 l
0.03 6.04 l
0.26 3.02 l
0.05 -15.09 l
1.59 3.02 l
0.23 -9.06 l
0.38 9.06 l
0.24 6.03 l
0.31 0 l
0.52 -15.09 l
0.50 -3.01 l
0.53 12.07 l
0.84 6.03 l
0.31 -15.09 l
1.33 15.09 l
0.44 -15.09 l
0.66 0 l
1.01 18.11 l
1.05 -3.02 l
0.87 -3.02 l
343.10 431.20 lineto
0.48 -24.14 l
1.57 15.09 l
0.01 -12.07 l
0.23 3.01 l
0.38 6.04 l
1.54 -18.11 l
0.49 -6.03 l
0.10 9.05 l
0.29 6.04 l
0.26 12.07 l
0.01 -6.04 l
0.02 9.05 l
0.33 -21.12 l
0.05 12.07 l
0.27 -15.09 l
0.23 6.04 l
0.07 9.05 l
0.15 -9.05 l
0.65 15.09 l
0.83 -15.09 l
0.29 3.02 l
0.02 -9.06 l
0.02 9.06 l
1.64 3.01 l
2.00 3.02 l
0.85 -12.07 l
0.04 9.05 l
0.29 -6.03 l
0.34 -3.02 l
0.25 3.02 l
0.15 6.03 l
0.19 3.02 l
0.37 -6.03 l
0.72 -9.06 l
1.04 3.02 l
0.31 9.05 l
0.15 0 l
0.55 -6.03 l
0.48 15.09 l
0.12 -12.07 l
0.35 12.07 l
2.08 -6.04 l
0.38 -12.07 l
0.01 0 l
0.69 -12.07 l
0.15 9.05 l
0.05 6.04 l
0.09 6.03 l
0.13 0 l
0.08 6.04 l
1.20 6.03 l
0.03 -15.08 l
0.08 -9.06 l
0.98 3.02 l
0.39 15.09 l
0.18 -6.04 l
0 3.02 l
0.10 -6.03 l
0.35 6.03 l
0.27 -18.10 l
0.21 9.05 l
0.01 12.07 l
0.34 -6.04 l
0.39 -6.03 l
0.19 0 l
0.16 0 l
0.19 6.03 l
0.42 -3.01 l
0.66 9.05 l
0.87 0 l
0.14 -15.09 l
1.32 15.09 l
0.51 -3.02 l
0.23 -6.03 l
1.00 6.03 l
0.96 6.04 l
0.40 -6.04 l
0.32 -3.02 l
0.44 -3.01 l
0.21 12.07 l
0.75 -12.07 l
0.30 9.05 l
0.76 -3.02 l
0.07 -6.03 l
0 -6.04 l
0.24 9.05 l
1.43 0 l
0.47 6.04 l
0.42 3.02 l
0.25 0 l
0.02 0 l
2.18 -21.13 l
0.06 -3.01 l
0.09 24.14 l
0.11 -12.07 l
0.41 12.07 l
0.11 -12.07 l
0.58 -9.06 l
0.01 15.09 l
385.82 410.08 lineto
0.04 -6.04 l
0.67 12.07 l
0.98 3.02 l
0.24 -12.07 l
0.06 3.02 l
0.01 0 l
0 0 l
0.22 3.01 l
0.17 3.02 l
0.07 6.04 l
0.16 -3.02 l
0.58 -15.09 l
0.09 15.09 l
0.35 -9.05 l
0.53 0 l
0.14 6.03 l
0.11 0 l
0.65 3.02 l
0.46 -15.09 l
0.25 15.09 l
0.75 -6.04 l
0.69 -12.07 l
0.64 0 l
0.11 9.06 l
0.65 9.05 l
0.19 6.03 l
0.60 -12.07 l
0.44 0 l
0.19 6.04 l
0.13 -9.05 l
1.02 3.01 l
0.13 9.06 l
0.05 -3.02 l
0.14 -9.05 l
0.19 6.03 l
0.17 -12.07 l
0.07 9.05 l
0.07 -3.01 l
0.65 0 l
0.11 0 l
0.06 6.03 l
0.12 -6.03 l
0.72 -3.02 l
0.25 0 l
0.32 -9.05 l
0.55 9.05 l
0.42 -3.02 l
0.24 3.02 l
0.13 12.07 l
0.06 0 l
0.20 -6.04 l
0.15 -9.05 l
0.27 15.09 l
0.37 -3.02 l
0.24 -9.05 l
0.17 0 l
0.71 0 l
0.36 18.10 l
0.38 -3.01 l
0.34 -6.04 l
0.74 3.02 l
0.22 3.02 l
0.03 -9.06 l
0.03 9.06 l
0.01 0 l
0.10 -12.07 l
0.55 6.03 l
0.12 0 l
0.39 3.02 l
0.06 -6.04 l
1.12 9.06 l
0.16 -18.11 l
0.54 -3.02 l
0.52 3.02 l
0.06 15.09 l
0.16 0 l
0.09 -3.02 l
0.05 -6.03 l
0.53 0 l
0.79 -3.02 l
0.71 9.05 l
0.17 -9.05 l
0.02 6.03 l
0.70 0 l
0.07 -9.05 l
0.68 15.09 l
0.60 0 l
0.38 -3.02 l
0.25 -6.03 l
0.01 9.05 l
0.40 0 l
1.32 -6.04 l
0.04 12.07 l
0.14 -27.15 l
0.47 12.07 l
0.16 3.01 l
0.08 -9.05 l
0.15 18.11 l
0.58 -12.07 l
418.06 410.08 lineto
0.10 6.03 l
0.18 -3.02 l
0.27 -15.08 l
1.10 18.10 l
0.27 -9.05 l
0.02 3.02 l
0.77 -9.06 l
0.76 15.09 l
0.36 3.02 l
0.78 -9.05 l
0.91 -12.07 l
0.40 21.12 l
0.73 -18.11 l
0.26 3.02 l
0.59 15.09 l
0.21 6.03 l
0.41 -15.08 l
0.69 3.01 l
0.47 -6.03 l
0.01 6.03 l
1.00 6.04 l
0.22 -3.02 l
0.84 0 l
0.19 0 l
0.06 -3.02 l
0.11 -9.05 l
0.07 21.12 l
0.29 -12.07 l
0.29 0 l
0.44 0 l
0.05 -3.01 l
1.07 -9.06 l
0.36 12.07 l
0.09 3.02 l
0.16 -9.05 l
0.54 -3.02 l
0.67 18.11 l
0.04 -15.09 l
0.47 15.09 l
1.14 -12.07 l
1.45 6.03 l
0.66 3.02 l
0.28 3.02 l
0.51 -3.02 l
0.73 0 l
0.59 0 l
0.14 9.05 l
0.72 -21.12 l
0.25 6.03 l
0.15 -3.01 l
0.06 -3.02 l
0.08 9.05 l
0.64 -12.07 l
0.03 0 l
0.15 6.04 l
0.27 -3.02 l
0.15 9.05 l
0.55 -9.05 l
0.05 0 l
0.66 3.02 l
0.01 -3.02 l
0.94 9.05 l
0.14 3.02 l
0.76 -12.07 l
0.42 3.02 l
0.34 9.05 l
0.06 -12.07 l
0.23 6.03 l
0.06 9.06 l
0.63 -9.06 l
0.13 -3.01 l
0.10 9.05 l
0.15 -9.05 l
0.05 12.07 l
0.09 6.03 l
0.30 -15.09 l
0.39 0 l
0.96 9.06 l
0.33 -18.11 l
0.23 9.05 l
0.40 -3.01 l
0.21 6.03 l
0.31 9.05 l
0.29 -12.07 l
0.70 0 l
0.84 -6.03 l
0.11 3.02 l
0.31 0 l
0.47 12.07 l
0.02 0 l
0.22 -6.04 l
0.96 -3.02 l
0.26 3.02 l
0.63 -3.02 l
1.06 9.06 l
0.47 -18.11 l
0.30 9.05 l
0.12 3.02 l
0.83 -6.03 l
o
0.00 0.00 504.00 504.00 cl
0 0 0 srgb
0.75 setlinewidth
[] 0 setdash
1 setlinecap
1 setlinejoin
10.00 setmiterlimit
np
74.36 73.44 m
358.08 0 l
o
np
74.36 73.44 m
0 -7.20 l
o
np
163.88 73.44 m
0 -7.20 l
o
np
253.40 73.44 m
0 -7.20 l
o
np
342.92 73.44 m
0 -7.20 l
o
np
432.44 73.44 m
0 -7.20 l
o
/Font1 findfont 12 s
74.36 47.52 (0) .5 0 t
163.88 47.52 (50000) .5 0 t
253.40 47.52 (100000) .5 0 t
342.92 47.52 (150000) .5 0 t
432.44 47.52 (200000) .5 0 t
np
59.04 122.20 m
0 309.00 l
o
np
59.04 122.20 m
-7.20 0 l
o
np
59.04 199.45 m
-7.20 0 l
o
np
59.04 276.70 m
-7.20 0 l
o
np
59.04 353.95 m
-7.20 0 l
o
np
59.04 431.20 m
-7.20 0 l
o
41.76 122.20 (0.2) .5 90 t
41.76 199.45 (0.4) .5 90 t
41.76 276.70 (0.6) .5 90 t
41.76 353.95 (0.8) .5 90 t
41.76 431.20 (1.0) .5 90 t
np
59.04 73.44 m
414.72 0 l
0 371.52 l
-414.72 0 l
0 -371.52 l
o
0.00 0.00 504.00 504.00 cl
/Font2 findfont 14 s
0 0 0 srgb
103.43 469.45 (Accurac) 0 ta
-0.140 (y f) tb
-0.280 (or Simple Feedf) tb
-0.280 (orwar) tb
-0.280 (d ANN on MNIST) tb gr
/Font1 findfont 12 s
266.40 18.72 (Steps) .5 0 t
12.96 234.53 (Accur) 90 ta
-0.120 (acy) tb gr
ep
%%Trailer
%%Pages: 1
%%EOF
