Wall time,Step,Value
1482230387.29863,24,0.1328125
1482230387.35137,56,0.140625
1482230387.35638,59,0.109375
1482230387.93863,402,0.3046875
1482230388.32382,588,0.296875
1482230388.93065,904,0.3828125
1482230389.29586,1090,0.4375
1482230389.50547,1210,0.5
1482230389.62346,1279,0.4921875
1482230390.66005,1782,0.5859375
1482230391.11051,2025,0.5546875
1482230391.29232,2111,0.59375
1482230391.70647,2312,0.65625
1482230392.26607,2594,0.5859375
1482230392.51856,2739,0.6796875
1482230392.73039,2865,0.6484375
1482230393.34501,3172,0.671875
1482230393.52205,3274,0.6015625
1482230394.19583,3619,0.65625
1482230394.40875,3743,0.6484375
1482230394.41043,3744,0.6171875
1482230394.42421,3752,0.6796875
1482230394.45139,3768,0.671875
1482230394.59026,3847,0.7265625
1482230394.93022,3999,0.71875
1482230394.97118,4020,0.671875
1482230396.91669,5053,0.7265625
1482230398.00174,5596,0.7890625
1482230398.30151,5773,0.7109375
1482230399.13986,6205,0.8515625
1482230399.36975,6333,0.796875
1482230400.48072,6875,0.7421875
1482230401.00924,7183,0.8046875
1482230401.08783,7229,0.7890625
1482230401.36628,7349,0.7265625
1482230402.03061,7719,0.765625
1482230402.27963,7820,0.765625
1482230403.04031,8218,0.796875
1482230403.3427,8390,0.765625
1482230404.35532,8910,0.828125
1482230405.25044,9384,0.8046875
1482230405.58363,9523,0.8046875
1482230405.61494,9542,0.796875
1482230405.76706,9633,0.796875
1482230405.79051,9647,0.75
1482230406.12163,9838,0.7734375
1482230406.38467,9951,0.8046875
1482230407.13174,10340,0.734375
1482230407.19685,10379,0.8125
1482230407.52368,10562,0.6875
1482230407.58261,10593,0.7890625
1482230407.74249,10682,0.7890625
1482230408.03459,10807,0.7890625
1482230408.09522,10840,0.765625
1482230408.25476,10934,0.7890625
1482230408.33887,10983,0.765625
1482230408.37179,11002,0.78125
1482230408.82992,11216,0.828125
1482230408.88701,11250,0.828125
1482230409.82055,11721,0.859375
1482230410.95844,12305,0.8203125
1482230411.40444,12499,0.7890625
1482230411.59042,12597,0.8046875
1482230411.61517,12611,0.8125
1482230412.37837,12997,0.7890625
1482230412.57579,13108,0.8203125
1482230412.70226,13178,0.796875
1482230412.99983,13308,0.859375
1482230414.37919,13912,0.8046875
1482230415.26145,14260,0.8046875
1482230415.39356,14332,0.8515625
1482230415.65454,14488,0.8359375
1482230415.66614,14495,0.765625
1482230415.75189,14546,0.8671875
1482230415.97861,14635,0.8671875
1482230416.48068,14933,0.8828125
1482230416.72851,15029,0.8359375
1482230416.8633,15104,0.8984375
1482230416.97434,15169,0.859375
1482230416.9962,15182,0.8046875
1482230417.11762,15250,0.78125
1482230417.61775,15495,0.8515625
1482230417.62994,15502,0.8515625
1482230417.86403,15636,0.828125
1482230418.22771,15830,0.828125
1482230418.38832,15881,0.75
1482230418.77793,16097,0.8046875
1482230419.03239,16217,0.8125
1482230419.69829,16547,0.8828125
1482230419.91162,16638,0.84375
1482230420.30726,16796,0.8515625
1482230420.41837,16860,0.8046875
1482230421.4914,17438,0.8515625
1482230421.53393,17463,0.8828125
1482230421.6983,17557,0.8671875
1482230421.70843,17563,0.828125
1482230422.15453,17778,0.78125
1482230422.55034,18015,0.8515625
1482230422.72031,18074,0.859375
1482230423.73529,18595,0.84375
1482230425.44998,19455,0.875
1482230425.54245,19509,0.828125
1482230425.95565,19733,0.8359375
1482230426.12339,19779,0.84375
1482230426.35348,19888,0.859375
1482230426.37709,19899,0.8125
1482230427.99616,20672,0.8515625
1482230428.18772,20785,0.8671875
1482230428.80911,21043,0.7578125
1482230429.32761,21292,0.84375
1482230430.03632,21658,0.828125
1482230431.50392,22416,0.8359375
1482230431.52084,22426,0.84375
1482230431.72783,22544,0.890625
1482230432.069,22736,0.84375
1482230432.1997,22772,0.828125
1482230433.64433,23556,0.8515625
1482230433.91804,23672,0.859375
1482230434.42012,23970,0.859375
1482230434.8911,24186,0.8046875
1482230435.63074,24573,0.8671875
1482230435.65383,24586,0.90625
1482230436.0813,24836,0.875
1482230437.79284,25733,0.8515625
1482230439.02538,26351,0.890625
1482230439.22996,26456,0.8203125
1482230440.09087,26921,0.890625
1482230440.36809,27038,0.8203125
1482230440.40738,27061,0.8671875
1482230441.47935,27640,0.84375
1482230441.61677,27721,0.859375
1482230442.82526,28343,0.859375
1482230443.97499,28961,0.875
1482230444.53417,29235,0.8984375
1482230444.9463,29472,0.8828125
1482230445.68716,29845,0.90625
1482230445.9465,29996,0.921875
1482230445.96328,30006,0.890625
1482230446.31772,30172,0.890625
1482230446.43198,30240,0.8828125
1482230446.49227,30276,0.8671875
1482230446.55191,30312,0.9140625
1482230446.79923,30458,0.890625
1482230447.14857,30622,0.9140625
1482230448.12567,31152,0.859375
1482230448.252,31223,0.84375
1482230448.39654,31308,0.9375
1482230448.50277,31328,0.8984375
1482230449.22822,31670,0.8671875
1482230449.68657,31888,0.828125
1482230450.49584,32319,0.890625
1482230451.25585,32705,0.8515625
1482230452.03643,33101,0.8984375
1482230452.08021,33127,0.84375
1482230452.14898,33167,0.890625
1482230452.67148,33459,0.921875
1482230453.04998,33635,0.90625
1482230453.60749,33912,0.8828125
1482230453.79722,34023,0.8359375
1482230454.17774,34243,0.8984375
1482230454.3993,34331,0.84375
1482230455.08764,34717,0.890625
1482230455.9474,35163,0.9296875
1482230456.24885,35293,0.875
1482230456.45769,35415,0.8359375
1482230456.93295,35654,0.890625
1482230456.95842,35669,0.84375
1482230457.40718,35927,0.8984375
1482230457.9073,36159,0.859375
1482230458.27084,36357,0.8359375
1482230458.27914,36362,0.8984375
1482230458.33965,36398,0.859375
1482230458.68087,36547,0.859375
1482230459.02835,36748,0.9140625
1482230459.11185,36797,0.875
1482230459.4201,36936,0.890625
1482230459.83634,37179,0.796875
1482230459.90199,37218,0.8515625
1482230461.01945,37781,0.875
1482230461.12215,37841,0.8984375
1482230461.51151,38073,0.8828125
1482230461.6036,38125,0.8984375
1482230462.47389,38589,0.8671875
1482230462.977,38838,0.8515625
1482230463.86218,39290,0.9140625
1482230464.02475,39373,0.8671875
1482230464.28186,39474,0.8984375
1482230464.42379,39545,0.8984375
1482230464.59058,39626,0.890625
1482230464.88204,39791,0.9375
1482230464.88719,39794,0.875
1482230465.05221,39888,0.8828125
1482230465.05395,39889,0.84375
1482230465.63733,40181,0.9375
1482230465.88849,40322,0.875
1482230466.92605,40813,0.8515625
1482230467.2501,40997,0.90625
1482230467.25862,41002,0.8828125
1482230467.32987,41044,0.90625
1482230467.86085,41309,0.890625
1482230468.38745,41605,0.8671875
1482230469.3069,42050,0.8984375
1482230469.82804,42327,0.859375
1482230470.06457,42466,0.90625
1482230471.16403,43004,0.8984375
1482230471.49749,43195,0.890625
1482230472.07285,43481,0.875
1482230472.09062,43491,0.90625
1482230472.18272,43544,0.8515625
1482230472.26873,43595,0.8671875
1482230472.30825,43619,0.8359375
1482230472.32994,43632,0.9140625
1482230472.67754,43796,0.8671875
1482230472.69361,43805,0.8671875
1482230472.70836,43814,0.8984375
1482230473.00078,43977,0.875
1482230473.09908,44036,0.8828125
1482230473.27574,44133,0.890625
1482230473.35809,44178,0.8984375
1482230473.79025,44391,0.8671875
1482230473.81142,44404,0.890625
1482230474.10332,44573,0.90625
1482230474.54818,44778,0.8984375
1482230475.05242,45027,0.921875
1482230475.85387,45428,0.890625
1482230476.00909,45479,0.90625
1482230476.35744,45672,0.921875
1482230476.35918,45673,0.8671875
1482230477.94712,46483,0.859375
1482230478.19801,46631,0.8671875
1482230478.82956,46954,0.90625
1482230479.12945,47123,0.921875
1482230479.16178,47142,0.8671875
1482230480.31506,47626,0.875
1482230481.77989,48422,0.8671875
1482230482.18094,48616,0.9140625
1482230482.25262,48658,0.9453125
1482230482.31945,48698,0.875
1482230482.52535,48817,0.9140625
1482230483.02991,49072,0.8828125
1482230483.38827,49283,0.9453125
1482230483.84674,49510,0.9140625
1482230483.93695,49563,0.875
1482230484.44326,49811,0.921875
1482230484.58488,49894,0.9296875
1482230484.67872,49950,0.8984375
1482230484.81592,50030,0.8984375
1482230484.92564,50094,0.828125
1482230484.99944,50138,0.8203125
1482230485.00112,50139,0.890625
1482230485.08061,50187,0.90625
1482230485.81199,50557,0.8828125
1482230486.08166,50666,0.875
1482230486.16486,50715,0.890625
1482230486.82012,51054,0.953125
1482230486.84208,51065,0.9140625
1482230487.35308,51360,0.859375
1482230487.89585,51627,0.8984375
1482230488.04969,51718,0.9140625
1482230488.44761,51911,0.90625
1482230489.58103,52520,0.90625
1482230490.25186,52864,0.8984375
1482230490.52974,53013,0.9140625
1482230491.10906,53301,0.875
1482230491.33645,53427,0.8984375
1482230491.87419,53700,0.8515625
1482230492.04286,53798,0.890625
1482230492.06401,53809,0.8984375
1482230492.37048,53986,0.8984375
1482230492.76453,54165,0.8671875
1482230493.03162,54320,0.9140625
1482230493.2492,54449,0.890625
1482230494.19733,54920,0.890625
1482230494.22595,54937,0.90625
1482230494.3845,55033,0.90625
1482230495.81226,55779,0.9296875
1482230496.32597,56072,0.890625
1482230496.49302,56172,0.8671875
1482230497.56331,56674,0.9140625
1482230497.59836,56694,0.875
1482230497.79043,56800,0.921875
1482230497.92158,56877,0.90625
1482230498.13657,57006,0.8984375
1482230498.46712,57150,0.9140625
1482230498.64831,57253,0.9140625
1482230499.6099,57748,0.9140625
1482230500.0598,57933,0.859375
1482230500.64072,58272,0.921875
1482230501.31839,58592,0.9140625
1482230501.96421,58905,0.90625
1482230502.23911,59056,0.9375
1482230503.17771,59531,0.90625
1482230503.30321,59606,0.9609375
1482230503.77155,59840,0.9140625
1482230503.91185,59905,0.890625
1482230505.14935,60519,0.8828125
1482230505.20335,60551,0.9375
1482230506.15009,61037,0.921875
1482230507.68839,61850,0.8671875
1482230507.91518,61978,0.953125
1482230508.51147,62274,0.90625
1482230508.56676,62306,0.90625
1482230508.85888,62480,0.8984375
1482230509.02115,62575,0.90625
1482230509.36502,62725,0.9375
1482230509.74407,62937,0.890625
1482230509.95573,63052,0.875
1482230510.31479,63220,0.90625
1482230510.47878,63317,0.921875
1482230510.56067,63366,0.90625
1482230510.9074,63524,0.890625
1482230511.73756,63958,0.921875
1482230512.6686,64450,0.9296875
1482230513.0283,64664,0.9296875
1482230513.14013,64727,0.9453125
1482230513.56094,64928,0.9375
1482230513.57273,64935,0.9296875
1482230513.89373,65125,0.953125
1482230513.92664,65144,0.90625
1482230514.33214,65334,0.9296875
1482230514.86229,65636,0.921875
1482230515.02034,65671,0.9375
1482230516.45889,66457,0.890625
1482230516.65998,66533,0.921875
1482230516.78095,66604,0.9296875
1482230517.07295,66775,0.921875
1482230517.17711,66837,0.875
1482230517.43762,66944,0.9140625
1482230517.90181,67220,0.890625
1482230518.0233,67284,0.9140625
1482230518.61807,67587,0.890625
1482230518.96275,67779,0.90625
1482230519.41839,67995,0.875
1482230519.70081,68163,0.9375
1482230520.25078,68436,0.9140625
1482230520.27412,68450,0.9140625
1482230521.31842,69011,0.875
1482230521.32111,69012,0.921875
1482230521.565,69105,0.921875
1482230522.57319,69638,0.9375
1482230522.70096,69714,0.9140625
1482230523.60716,70186,0.921875
1482230523.67698,70228,0.9453125
1482230524.60772,70712,0.9140625
1482230524.71742,70776,0.8984375
1482230525.28593,71045,0.921875
1482230525.67564,71231,0.8671875
1482230525.8462,71329,0.9609375
1482230526.39053,71624,0.8828125
1482230526.89526,71869,0.921875
1482230527.0743,71967,0.953125
1482230527.59342,72230,0.921875
1482230527.61386,72242,0.9453125
1482230527.90862,72415,0.9453125
1482230528.13276,72503,0.90625
1482230528.64241,72803,0.8984375
1482230529.34738,73166,0.890625
1482230529.35746,73172,0.90625
1482230530.50432,73782,0.9140625
1482230530.78744,73904,0.9375
1482230531.0775,74067,0.9375
1482230531.28981,74192,0.8984375
1482230531.41712,74217,0.921875
1482230532.52478,74822,0.90625
1482230532.67671,74912,0.90625
1482230532.90356,75046,0.8984375
1482230533.43759,75310,0.9453125
1482230534.48896,75893,0.8984375
1482230535.08807,76179,0.9453125
1482230535.37408,76346,0.90625
1482230535.62781,76452,0.90625
1482230535.81848,76558,0.9140625
1482230536.1274,76734,0.9453125
1482230536.58462,76955,0.9375
1482230536.86027,77115,0.921875
1482230537.45841,77410,0.921875
1482230538.08124,77725,0.9375
1482230538.42891,77929,0.9375
1482230538.80484,78102,0.9296875
1482230538.8925,78153,0.96875
1482230539.18024,78321,0.921875
1482230539.97996,78718,0.90625
1482230540.10198,78771,0.921875
1482230540.25861,78860,0.921875
1482230540.51922,78971,0.890625
1482230540.81925,79143,0.921875
1482230540.96982,79230,0.9296875
1482230541.34746,79408,0.875
1482230542.3589,79939,0.953125
1482230542.46648,80002,0.9453125
1482230542.71311,80143,0.90625
1482230543.07454,80297,0.9296875
1482230543.2198,80381,0.9140625
1482230543.97862,80769,0.921875
1482230544.00877,80786,0.9453125
1482230544.07999,80827,0.953125
1482230544.20202,80898,0.8984375
1482230545.05859,81361,0.8984375
1482230545.22652,81460,0.90625
1482230545.63046,81643,0.875
1482230546.09582,81907,0.9296875
1482230547.27598,82490,0.953125
1482230547.519,82629,0.953125
1482230547.9964,82861,0.8828125
1482230548.23675,83000,0.921875
1482230549.27176,83538,0.921875
1482230549.34305,83580,0.921875
1482230549.35629,83588,0.9140625
1482230549.36633,83594,0.890625
1482230549.42995,83630,0.90625
1482230549.43661,83634,0.9375
1482230549.67775,83712,0.90625
1482230549.80041,83783,0.9453125
1482230549.82052,83795,0.9453125
1482230549.8555,83816,0.90625
1482230550.3162,84059,0.953125
1482230552.33287,85060,0.9140625
1482230554.16705,86051,0.921875
1482230554.31174,86137,0.953125
1482230554.39593,86188,0.90625
1482230555.34541,86658,0.90625
1482230555.58408,86782,0.90625
1482230555.59815,86790,0.90625
1482230556.51938,87178,0.90625
1482230556.64621,87208,0.8984375
1482230557.45114,87621,0.8828125
1482230557.94824,87899,0.8984375
1482230557.99679,87927,0.921875
1482230558.11649,87955,0.953125
1482230559.97027,88816,0.90625
1482230560.15154,88921,0.9375
1482230560.48278,89114,0.9296875
1482230560.63549,89202,0.9375
1482230561.0522,89392,0.8828125
1482230561.09595,89418,0.9140625
1482230561.20971,89486,0.921875
1482230561.2131,89488,0.953125
1482230562.2158,90034,0.9140625
1482230563.00504,90449,0.90625
1482230563.10873,90482,0.9453125
1482230564.22221,90981,0.90625
1482230565.16543,91482,0.9375
1482230565.34325,91585,0.9375
1482230565.69526,91790,0.9296875
1482230567.66999,92754,0.9140625
1482230568.40937,93132,0.9296875
1482230568.67099,93275,0.921875
1482230569.07578,93501,0.9453125
1482230569.20612,93528,0.921875
1482230569.28741,93575,0.96875
1482230569.40549,93646,0.921875
1482230569.89667,93930,0.9609375
1482230570.04727,93968,0.9296875
1482230570.17585,94027,0.921875
1482230570.83986,94381,0.8984375
1482230571.33657,94643,0.9140625
1482230571.77604,94845,0.9140625
1482230571.95074,94949,0.953125
1482230573.50911,95759,0.8984375
1482230573.86354,95968,0.84375
1482230575.44405,96708,0.9375
1482230575.81626,96928,0.890625
1482230575.82146,96931,0.9375
1482230576.3564,97122,0.8828125
1482230576.72885,97265,0.921875
1482230577.12307,97431,0.8984375
1482230577.15098,97444,0.9453125
1482230577.16278,97450,0.890625
1482230577.36657,97555,0.9140625
1482230577.47656,97619,0.921875
1482230580.82407,99290,0.890625
1482230580.84444,99299,0.9140625
1482230581.86161,99770,0.96875
1482230581.98999,99836,0.8984375
1482230582.00572,99845,0.9140625
1482230582.13079,99913,0.90625
1482230584.20403,100966,0.96875
1482230584.91942,101348,0.921875
1482230584.93954,101360,0.90625
1482230584.98442,101387,0.953125
1482230585.07712,101443,0.953125
1482230585.22736,101532,0.9140625
1482230585.45922,101671,0.9296875
1482230585.84236,101857,0.921875
1482230585.86058,101868,0.9296875
1482230585.93256,101909,0.90625
1482230586.40743,102141,0.890625
1482230586.52346,102209,0.8828125
1482230586.67359,102299,0.9453125
1482230586.7365,102334,0.9296875
1482230586.96671,102472,0.90625
1482230587.24056,102583,0.9375
1482230587.37431,102662,0.9609375
1482230587.99758,102989,0.9375
1482230589.12087,103604,0.9453125
1482230589.22528,103667,0.9609375
1482230589.30167,103713,0.9140625
1482230589.75922,103938,0.921875
1482230590.24824,104229,0.9375
1482230590.41324,104284,0.9609375
